<?xml version="1.0" standalone="no"?>
<!DOCTYPE svg PUBLIC "-//W3C//DTD SVG 1.1//EN" "http://www.w3.org/Graphics/SVG/1.1/DTD/svg11.dtd" >
<!--
2020-1-16: Created with FontForge (http://fontforge.org)
-->
<svg xmlns="http://www.w3.org/2000/svg" xmlns:xlink="http://www.w3.org/1999/xlink" version="1.1">
<metadata>
Created by FontForge 20170731 at Thu Jan 16 14:14:19 2020
 By root

</metadata>
<defs>
<font id="Flaticon" horiz-adv-x="512" >
  <font-face 
    font-family="Flaticon"
    font-weight="400"
    font-stretch="normal"
    units-per-em="512"
    panose-1="2 0 5 3 0 0 0 0 0 0"
    ascent="448"
    descent="-64"
    bbox="0.00146481 -64.001 504 448"
    underline-thickness="25.6"
    underline-position="-51.2"
    unicode-range="U+0020-F103"
  />
    <missing-glyph />
    <glyph glyph-name="space" unicode=" " horiz-adv-x="200" 
 />
    <glyph glyph-name="003-woman" unicode="&#xf102;" 
d="M232 256c0 4.41797 3.58203 8 8 8s8 -3.58203 8 -8s-3.58203 -8 -8 -8s-8 3.58203 -8 8zM328 256c0 4.41797 3.58203 8 8 8s8 -3.58203 8 -8s-3.58203 -8 -8 -8s-8 3.58203 -8 8zM320 192c0 -17.6484 -14.3516 -32 -32 -32s-32 14.3516 -32 32h16
c0 -8.82422 7.17578 -16 16 -16s16 7.17578 16 16h16zM375.696 311.336c-0.408203 4.94434 -1.23242 9.87207 -2.47266 14.6719l15.5039 3.97656c1.44824 -5.66406 2.43262 -11.4961 2.9209 -17.3281zM368.024 340.664c-14.3125 31.1836 -45.7285 51.3359 -80.0244 51.3359
v16c40.5283 0 77.6484 -23.8076 94.5684 -60.6641zM144 112c13.2324 0 24 -10.7676 24 -24s-10.7676 -24 -24 -24s-24 10.7676 -24 24s10.7676 24 24 24zM144 80c4.41602 0 8 3.5918 8 8s-3.58398 8 -8 8s-8 -3.5918 -8 -8s3.58398 -8 8 -8zM80 112
c13.2324 0 24 -10.7676 24 -24s-10.7676 -24 -24 -24s-24 10.7676 -24 24s10.7676 24 24 24zM80 80c4.41602 0 8 3.5918 8 8s-3.58398 8 -8 8s-8 -3.5918 -8 -8s3.58398 -8 8 -8zM232 88c0 -13.2324 -10.7676 -24 -24 -24s-24 10.7676 -24 24s10.7676 24 24 24
s24 -10.7676 24 -24zM200 88c0 -4.4082 3.58398 -8 8 -8s8 3.5918 8 8s-3.58398 8 -8 8s-8 -3.5918 -8 -8zM424.984 69.6885c48 -19.6328 79.0156 -65.8242 79.0156 -117.688v-8h-432v8c0 22.7676 6.04785 44.5918 17.4316 64h-9.43164c-39.7041 0 -72 32.3037 -72 72
s32.2959 72 72 72h72v144c0 74.9922 61.0078 136 136 136s136 -61.0078 136 -136v-192c0 -13.3115 -3.75977 -26.3037 -10.6318 -37.5596zM168 304v-144h49.2158c-21.208 26.2803 -33.2158 59.3037 -33.2158 93.1924c0 33.4717 22.4805 63.2637 54.6641 72.4639
l9.93555 2.83984l16.168 -7.19238c37.7764 -16.792 77.8965 -25.3037 119.232 -25.3037h8v-42.8076c0 -49.6484 -24.6318 -94.752 -64 -121.96v-5.74414c0 -9.79199 5.84766 -18.5127 14.9199 -22.2158l55.248 -22.6084c6.25586 9.23242 9.83203 20.0957 9.83203 31.3359
v192c0 66.168 -53.832 120 -120 120s-120 -53.832 -120 -120zM359.832 14.9443c11.0244 14.3672 6.32812 47.4072 2.71973 63l-13.8477 5.66406l-49.3525 -65.8086c7.17676 -4.04004 21.4404 -9.7998 44.6484 -9.7998c7.16797 0 12.2002 2.20801 15.832 6.94434z
M238.648 160h41.3516v-28.2803c2.76758 -1.21582 5.45605 -2.33594 8.00781 -3.26367c52.7441 18.7676 87.9922 68.5518 87.9922 124.728v26.9121c-40.7676 1.03223 -80.3359 9.95996 -117.736 26.5762l-10.8555 4.83203l-4.36035 -1.24023
c-25.3438 -7.23926 -43.0479 -30.7119 -43.0479 -57.0713c0 -34.7285 14.1035 -68.4648 38.6484 -93.1924zM333.576 90.0957c-12.04 6.25586 -19.9922 18.04 -21.2959 31.5361c-6.91211 -3.60742 -14.1768 -6.69629 -21.752 -9.22363l-2.52832 -0.839844l-2.52832 0.839844
c-1.7832 0.591797 -3.63184 1.32812 -5.47168 2.04004v-26.4482c0 -2.7041 -0.175781 -5.36816 -0.47168 -8h46.4717zM275.8 64c-1.41602 -3.99219 -3.14355 -7.82422 -5.20801 -11.4561l17.4082 -23.208l26 34.6641h-38.2002zM260.68 39.0879
c-11.6152 -12.5117 -27.5674 -20.9355 -45.4795 -22.7197c4.63184 -7.17578 11.1514 -8.36816 16.7998 -8.36816c23.1836 0 37.4404 5.75195 44.6396 9.80762zM24 88c0 -30.8799 25.1279 -56 56 -56h128c30.8721 0 56 25.1201 56 56v56h-184
c-30.8721 0 -56 -25.1201 -56 -56zM108.416 16c-11.7764 -16.6797 -18.7041 -35.8164 -20.1357 -56h63.7197v40h16v-40h112v41.5596c-9.91992 -4.71191 -25.5195 -9.55957 -48 -9.55957c-16.4717 0 -28.4639 8.46387 -34.376 24h-89.208zM424 -40h63.7197
c-2.9834 42.04 -29.3193 78.7363 -68.7998 94.8799l-38.5918 15.792c3.12012 -18.2803 5.47168 -48.1357 -7.78418 -65.4482c-6.62402 -8.64746 -16.4961 -13.2236 -28.5439 -13.2236c-22.4805 0 -38.0801 4.84766 -48 9.55957v-41.5596h112v40h16v-40z" />
    <glyph glyph-name="001-listening" unicode="&#xf100;" 
d="M454.47 32.498c8.97656 -17.2646 9.95312 -31.9365 2.89062 -43.6006c-10.8945 -17.9922 -39.9609 -26.7383 -88.8545 -26.7383h-1.98438l-0.722656 -7.21094c-1.08203 -10.9766 -9.30078 -18.9492 -19.543 -18.9492h-230.495
c-10.2383 0 -18.457 7.97266 -19.543 18.9531l-0.71875 7.20703h-1.95703c-48.9131 0 -77.9912 8.74609 -88.8818 26.7383c-7.06641 11.6641 -6.08594 26.332 2.88672 43.5967l0.0351562 0.0703125c0.0273438 0.046875 0.046875 0.09375 0.0703125 0.140625l27.3047 52.1758
c1.93359 3.69531 6.5 5.12891 10.1992 3.19141c3.69922 -1.93359 5.125 -6.50391 3.19141 -10.1992l-17.8438 -34.0977c15.4922 3.80469 33.5742 3.16797 57.0225 -1.78516l-3.67578 36.8164c-0.5 5.05859 1.17188 9.98438 4.69922 13.8789
c3.79688 4.19141 9.20703 6.59766 14.8438 6.59766h110.383c4.17188 0 7.55469 -3.38281 7.55469 -7.55859c0 -4.17188 -3.38281 -7.55859 -7.55469 -7.55859h-110.383c-1.33594 0 -2.73047 -0.621094 -3.64453 -1.62891
c-0.644531 -0.710938 -0.933594 -1.46484 -0.855469 -2.23828l4.66797 -46.7695c0.0546875 -0.320312 0.0859375 -0.648438 0.0976562 -0.980469l6.19531 -62.0342c0 -0.015625 0 -0.03125 0.00390625 -0.0507812l1.39844 -14.0156
c0.261719 -2.65234 1.89453 -5.33203 4.50391 -5.33203h230.499c2.73047 0 4.24609 2.75781 4.5 5.32422l1.40234 14.0352c0 0.0078125 0 0.0195312 0.00390625 0.0273438l10.9609 109.804c0.0742188 0.765625 -0.210938 1.51953 -0.859375 2.23047
c-0.910156 1.00391 -2.30859 1.62891 -3.64453 1.62891h-106.723c-4.1709 0 -7.55762 3.38281 -7.55762 7.55859c0 4.17188 3.38281 7.55469 7.55762 7.55469h106.723c5.63672 0 11.0508 -2.40234 14.8477 -6.59375c3.52734 -3.89453 5.19531 -8.82422 4.69922 -13.875
l-3.67969 -36.8281c23.4492 4.96094 41.5312 5.59766 57.0264 1.79297l-23.2998 44.5312c-18.9258 36.2266 -31.5781 53.4961 -65.707 55.3281c-6.92578 0.378906 -13.2305 1.10938 -19.1523 2.59766c-16.082 -22.3594 -49.3828 -36.7148 -88.8232 -37.8789
c-1.6875 -0.0507812 -3.36328 -0.078125 -5.03125 -0.078125c-40.0625 0 -74.4102 14.2734 -91.1172 37.9297c-5.91797 -1.48438 -12.1523 -2.21484 -18.8828 -2.57031c-29.5625 -1.59766 -42.9131 -15.2148 -57.21 -39.7852
c-1.40234 -2.41016 -3.9375 -3.75781 -6.53906 -3.75781c-1.29297 0 -2.59766 0.332031 -3.79297 1.02734c-3.60938 2.10156 -4.83203 6.72656 -2.73047 10.332c16.1406 27.7422 33.3906 45.3281 69.4639 47.2773c17.5898 0.929688 28.8516 4.12891 41.6211 19.0234
c0.675781 0.785156 1.5625 1.75391 2.55469 2.80469c-17.918 16.2422 -31.6992 37.3428 -37.5312 58.2842h-9.29297c-15.582 0 -28.2617 12.7891 -28.2617 28.5117v13.8438c0 7.66797 2.98828 14.8672 8.41406 20.2812c0.5625 0.5625 1.15234 1.09375 1.75391 1.60156
v23.7617c0 37.5 14.2891 69.0107 41.3203 91.1279c23.6719 19.3672 55.4141 30.0312 89.3867 30.0312c33.4873 0 64.7725 -10.3828 88.0967 -29.2383c26.5586 -21.4727 40.6016 -51.9922 40.6016 -88.249v-27.4062c6.20703 -5.23438 10.1641 -13.0977 10.1641 -21.8789
v-13.8438c0 -15.7227 -12.6797 -28.5156 -28.2617 -28.5156h-9.28906c-5.44141 -19.5352 -17.8086 -39.2305 -34.0039 -54.9834c2.18359 -2.24609 4.39844 -4.56641 5.74219 -6.14062c12.7344 -14.8516 24.0078 -18.0547 41.6172 -19.0117
c43.125 -2.32031 59.6484 -27.75 78.2842 -63.418l32.7539 -62.6055l0.0703125 -0.140625zM317.908 309.712v8.77344c-0.371094 65.2842 -47.0547 88.4404 -87.0498 88.4404h-0.292969c-45.168 -0.125 -93.168 -28.957 -93.168 -82.1396v-15.0742h4.66406
c5.73438 0 9.38672 1.59766 15.8711 11.0547c6.76172 9.85938 12.9414 16.6367 21.1211 17.6836c0.71875 0.0898438 1.42578 0.136719 2.12109 0.136719c6.37891 0 11.9062 -3.67969 18.2109 -7.875c2.14453 -1.42969 4.36328 -2.90625 6.88672 -4.45312
c12.7188 -7.75 27.1484 -16.5469 63.2178 -16.5469h48.418zM352.408 267.384v13.8438c0 4.83594 -2.53516 9.07031 -6.31641 11.4258c-0.195312 0.109375 -0.386719 0.226562 -0.566406 0.351562c-1.86328 1.03516 -4 1.62109 -6.26562 1.62109l-6.23438 -0.0117188
v-34.7773c0 -1.93359 -0.109375 -3.89062 -0.277344 -5.85547h6.51172c7.25 0 13.1484 6.01172 13.1484 13.4023zM113.065 326.841v-17.2852c0.964844 0.101562 1.94141 0.15625 2.92578 0.15625h0.0742188h6.21484v15.0742c0 28.5156 12.2422 54.1006 34.4688 72.0342
c19.7695 15.9531 46.6562 25.1445 73.7734 25.2227h0.339844c50.6201 0 101.757 -31.9648 102.163 -103.515v-8.80078l6.21875 0.0117188c1.01172 0 2.01172 -0.0546875 2.99609 -0.160156v20.9336c0 31.5391 -12.0977 57.9912 -34.9883 76.4951
c-20.6406 16.6875 -48.5547 25.8789 -78.5928 25.8789c-55.6719 0 -115.594 -33.1875 -115.594 -106.046zM116.046 253.954v-0.00390625h6.51562c-0.167969 1.97656 -0.277344 3.94141 -0.277344 5.88672v34.7578h-6.23828h-0.03125
c-3.43359 0 -6.67188 -1.35547 -9.14062 -3.81641c-2.56641 -2.55859 -3.97656 -5.96094 -3.97656 -9.58203v-13.8438c0 -7.38672 5.89844 -13.3984 13.1484 -13.3984zM138.722 247.603c6.35938 -30.7852 35.0312 -64.4209 67.2031 -76.5107
c16.0586 -6.03516 27.4609 -6.02734 43.5742 0.03125c32.0732 12.1172 60.6787 45.6904 67.0732 76.4014c0.03125 0.230469 0.0742188 0.453125 0.128906 0.675781c0.777344 3.94531 1.20703 7.84375 1.20703 11.6367v34.7617h-48.418
c-40.3115 0 -57.3818 10.4062 -71.1006 18.7656c-2.78125 1.70312 -5.22656 3.32812 -7.37891 4.76562c-4.09766 2.72656 -8.32422 5.55859 -10.043 5.32812c-0.941406 -0.121094 -3.85938 -1.45703 -10.5664 -11.2383
c-7.25391 -10.5781 -14.8477 -17.6211 -28.3359 -17.6211h-4.66797v-34.7617c0 -3.82422 0.433594 -7.75391 1.22656 -11.7305c0.0390625 -0.164062 0.0703125 -0.335938 0.0976562 -0.503906zM234.085 123.463c32.3623 0.953125 60.4873 11.9375 74.6396 28.5938
c-6.28125 3.58984 -12.3242 8.66016 -18.4961 15.8555c-1.17578 1.375 -3.56641 3.85938 -5.67188 6.02344c-9.21875 -7.16016 -19.2695 -13.0078 -29.7305 -16.957c-9.78418 -3.67969 -18.4834 -5.51953 -27.1709 -5.51953c-8.66797 0 -17.3242 1.82812 -27.0508 5.48438
c-9.04297 3.39844 -17.7852 8.22266 -25.9453 14.0781c-1.16016 -1.21484 -2.20312 -2.33203 -2.875 -3.11328c-6.20703 -7.23828 -12.3789 -12.3398 -18.7852 -15.9414c15.3906 -18.75 45.7578 -29.5508 81.0859 -28.5039zM93.542 -22.7236h0.445312l-4.87891 48.8906
c-31.6553 7.26074 -52.1279 6.52246 -69.0615 -2.44922c-5.5625 -11.4102 -6.39844 -20.4844 -2.46094 -26.9883c5.375 -8.875 22.9141 -19.4531 75.9561 -19.4531zM444.431 -3.27441c3.9375 6.50391 3.10547 15.582 -2.46094 26.9922
c-16.9375 8.97559 -37.4092 9.70996 -69.0576 2.44141l-4.88281 -48.8828h0.476562c53.0186 0 70.5498 10.5781 75.9248 19.4492zM444.431 -3.27441zM198.479 17.6436c0 16.249 14.5977 29.4678 32.543 29.4678s32.5459 -13.2188 32.5459 -29.4678
c0 -16.2461 -14.6006 -29.4648 -32.5459 -29.4648s-32.543 13.2188 -32.543 29.4648zM231.022 31.9941c-9.60938 0 -17.4297 -6.43652 -17.4297 -14.3506s7.82031 -14.3516 17.4297 -14.3516c9.61328 0 17.4336 6.4375 17.4336 14.3516s-7.82031 14.3506 -17.4336 14.3506z
M231.022 31.9941zM194.612 244.216c-4.17578 0 -7.55859 3.38281 -7.55859 7.55859v9.33594c0 4.17188 3.38281 7.55469 7.55859 7.55469c4.17188 0 7.55469 -3.38281 7.55469 -7.55469v-9.33594c0 -4.17578 -3.38281 -7.55859 -7.55469 -7.55859zM194.612 244.216z
M259.951 244.216c-4.17188 0 -7.55469 3.38281 -7.55469 7.55859v9.33594c0 4.17188 3.38281 7.55469 7.55469 7.55469c4.17578 0 7.55859 -3.38281 7.55859 -7.55469v-9.33594c0 -4.17578 -3.38281 -7.55859 -7.55859 -7.55859zM259.951 244.216z" />
    <glyph glyph-name="004-business-and-finance" unicode="&#xf103;" 
d="M495.52 65.8877h0.0166016c0.263672 -0.728516 0.478516 -1.94922 0.478516 -2.72461c0 -3.09863 -2.36523 -6.46875 -5.27832 -7.52344l-50.7363 -18.4639v-29.1758c0 -4.41602 -3.58398 -8 -8 -8h-94.1357l-102.729 -37.3838
c-0.726562 -0.269531 -1.94629 -0.488281 -2.7207 -0.488281h-0.0146484h-0.00292969c-3.0918 0 -6.45996 2.3584 -7.51758 5.26367l-11.8643 32.6084h-29.0156c-4.41602 0 -8 3.58398 -8 8s3.58398 8 8 8h240v248c0 4.41602 3.58398 8 8 8s8 -3.58398 8 -8v-209.8
l37.7441 13.7354l-23.7686 65.3281c-0.324219 0.798828 -0.586914 2.14648 -0.586914 3.00879c0 4.41602 3.58398 8 8 8c3.21191 0 6.62207 -2.48047 7.61133 -5.53613zM237.184 -19.6162l53.9043 19.6162h-61.04zM152 167.648l-58.4639 160.584
c-0.265625 0.730469 -0.481445 1.9541 -0.481445 2.73145c0 3.09961 2.36621 6.4707 5.28125 7.52441l30.0645 10.9434c0.743164 0.276367 1.99023 0.5 2.7832 0.5c4.41602 0 8 -3.58398 8 -8c0 -3.10938 -2.37598 -6.4834 -5.30371 -7.53125l-22.5518 -8.24023
l40.6719 -111.76v161.6c0 4.41602 3.58398 8 8 8h63.3838l130.544 47.5361c0.729492 0.263672 1.9502 0.478516 2.72559 0.478516c3.09863 0 6.46875 -2.36523 7.52246 -5.27832l15.5605 -42.7363h52.2637c4.41602 0 8 -3.58398 8 -8v-80c0 -4.41602 -3.58398 -8 -8 -8
s-8 3.58398 -8 8v72h-256v-223c0 -4.41602 -3.58398 -8 -8 -8s-8 3.58398 -8 8v22.6484zM351.88 413.744l-81.7275 -29.7441h92.5596zM392 328c4.41602 0 8 -3.58398 8 -8s-3.58398 -8 -8 -8h-144c-4.41602 0 -8 3.58398 -8 8s3.58398 8 8 8h144zM400 288v-80
c0 -4.41602 -3.58398 -8 -8 -8h-80c-4.41602 0 -8 3.58398 -8 8v80c0 4.41602 3.58398 8 8 8h80c4.41602 0 8 -3.58398 8 -8zM384 216v64h-64v-64h64zM272 280c4.41602 0 8 -3.58398 8 -8s-3.58398 -8 -8 -8h-48c-4.41602 0 -8 3.58398 -8 8s3.58398 8 8 8h48zM272 248
c4.41602 0 8 -3.58398 8 -8s-3.58398 -8 -8 -8h-72c-4.41602 0 -8 3.58398 -8 8s3.58398 8 8 8h72zM272 216c4.41602 0 8 -3.58398 8 -8s-3.58398 -8 -8 -8h-72c-4.41602 0 -8 3.58398 -8 8s3.58398 8 8 8h72zM272 184c4.41602 0 8 -3.58398 8 -8s-3.58398 -8 -8 -8h-72
c-4.41602 0 -8 3.58398 -8 8s3.58398 8 8 8h72zM392 184c4.41602 0 8 -3.58398 8 -8s-3.58398 -8 -8 -8h-72c-4.41602 0 -8 3.58398 -8 8s3.58398 8 8 8h72zM392 152c4.41602 0 8 -3.58398 8 -8s-3.58398 -8 -8 -8h-64c-4.41602 0 -8 3.58398 -8 8s3.58398 8 8 8h64z
M392 120c4.41602 0 8 -3.58398 8 -8s-3.58398 -8 -8 -8h-88c-4.41602 0 -8 3.58398 -8 8s3.58398 8 8 8h88zM400 80c0 -4.41602 -3.58398 -8 -8 -8h-112c-4.41602 0 -8 3.58398 -8 8s3.58398 8 8 8h112c4.41602 0 8 -3.58398 8 -8zM248 56h80c4.41602 0 8 -3.58398 8 -8
s-3.58398 -8 -8 -8h-80c-4.41602 0 -8 3.58398 -8 8s3.58398 8 8 8zM244.464 71.2002c-0.512695 -0.614258 -1.49121 -1.43848 -2.18359 -1.83984l-101.889 -58.8564c-1.01465 -0.577148 -2.78613 -1.04492 -3.9541 -1.04492c-4.41602 0 -8 3.58398 -8 8
c0 2.5293 1.77148 5.62109 3.9541 6.90137l94.96 54.832l-24 41.5996l-131.632 -76l8 -13.8564l96.9922 56c1.02441 0.591797 2.81738 1.07129 4 1.07129c4.41797 0 8.00293 -3.58496 8.00293 -8.00293c0 -2.55078 -1.79297 -5.65723 -4.00293 -6.93164l-96.9922 -56
l8 -13.8486l8.95996 5.16797c1.03516 0.606445 2.84766 1.09863 4.0459 1.09863c4.41602 0 8 -3.58398 8 -8c0 -2.56836 -1.8125 -5.68457 -4.0459 -6.9541l-36.6797 -21.1758c-5.12402 -2.95801 -14.084 -5.35938 -20 -5.35938
c-22.0811 0 -40.0029 17.9219 -40.0029 40.0029c0 12.749 8.96191 28.2695 20.0029 34.6445l166.28 96.0156c0.693359 0.401367 1.89746 0.831055 2.6875 0.959961l67.4238 11.2002c0.362305 0.0605469 0.954102 0.109375 1.32129 0.109375
c2.54883 0 5.65234 -1.79102 6.92676 -3.99805l13.8564 8c1.02441 0.591797 2.81641 1.07129 4 1.07129c4.41797 0 8.00293 -3.58496 8.00293 -8.00293c0 -2.55078 -1.79297 -5.65723 -4.00293 -6.93164l-13.8564 -8c0.589844 -1.02344 1.06738 -2.8125 1.06738 -3.99316
c0 -1.58105 -0.814453 -3.85742 -1.81934 -5.0791zM270.776 132l-1.22461 2.13574l-50.5674 -8.41602l20.4561 -35.4238l32.5518 39.5918l-1.21582 2.1123v0v0zM69.8564 16l-11.9922 20.7998l-13.8643 -8c-6.63379 -3.82227 -12.0186 -13.1387 -12.0186 -20.7949
c0 -3.55176 1.44238 -8.92969 3.21875 -12.0049c3.82227 -6.63379 13.1387 -12.0186 20.7949 -12.0186c3.55176 0 8.92969 1.44238 12.0049 3.21875l13.8564 8l-12 20.7998v0z" />
    <glyph glyph-name="002-reading" unicode="&#xf101;" 
d="M412.716 109.823c13.6426 0 24.7451 -11.1025 24.7451 -24.7451v-32.9932c0 -13.6416 -11.1025 -24.7441 -24.7451 -24.7441v-30.3867l-156.716 -60.9541l-156.716 60.9541v30.3867c-13.6426 0 -24.7451 11.1025 -24.7451 24.7441v32.9932
c0 13.6426 11.1025 24.7451 24.7451 24.7451v53.2998l22.624 -8.80078l0.495117 1.2041c8.62793 13.4111 22.5596 22.7324 38.2393 25.5781l54.1162 9.83984v4.27246c-20.2412 11.7451 -35.0547 31.8047 -39.6816 55.5107
c-14.9961 3.10156 -26.3037 16.4053 -26.3037 32.3076v63.4043c0 56.0059 45.5625 101.561 101.56 101.561c27.1289 0 52.6328 -10.5576 71.8174 -29.7432l4.12402 -4.12402c21.875 -6.53223 36.9521 -26.6084 36.9521 -49.6299v-81.4678
c0 -15.9023 -11.3076 -29.2061 -26.3037 -32.3076c-4.61816 -23.7061 -19.4404 -43.7568 -39.6816 -55.5107v-4.27246l54.125 -9.84863c15.6963 -2.8457 29.6357 -12.1826 38.2549 -25.6025l0.536133 -0.972656l0.0664062 -0.148438l22.4922 8.75098v-53.2998z
M312.698 171.363l-18.0469 -54.1494l79.8018 31.0293c-6.21094 8.64453 -15.5234 14.7148 -26.04 16.6289zM231.956 187.653l24.0439 -18.0303l24.0439 18.0303c-7.61328 -2.32617 -15.6807 -3.59668 -24.0439 -3.59668s-16.4307 1.27051 -24.0439 3.59668zM243.446 158.422
l-22.501 16.875l-5.25391 -0.948242l10.9199 -32.7539zM291.055 175.289l-22.501 -16.876l16.835 -16.8262l10.9199 32.7539zM338.482 268.832c4.90723 2.8623 8.24805 8.125 8.24805 14.2031c0 6.0791 -3.34082 11.3418 -8.24805 14.2041v-28.4072zM173.518 268.832
v28.4072c-4.90723 -2.8623 -8.24805 -8.125 -8.24805 -14.2041c0 -6.07812 3.34082 -11.3408 8.24805 -14.2031zM173.518 324.276h8.24805c19.0703 0 37.002 7.42383 50.4961 20.9092l16.3887 16.3975l6.55762 -8.75879c13.4033 -17.874 34.7666 -28.5479 57.1191 -28.5479
h26.1553v-9.41895c2.93652 -0.758789 5.69141 -1.92188 8.24805 -3.41504v53.0605c0 16.2324 -10.9951 30.3203 -26.749 34.2549l-2.21875 0.544922l-7.27539 7.2832c-16.0674 16.0674 -37.4385 24.918 -60.1543 24.918c-46.9072 0 -85.0635 -38.165 -85.0635 -85.0645
v-34.9971c2.55664 1.49316 5.31152 2.64746 8.24805 3.41504v9.41895zM190.015 266.539c0 -36.3828 29.6025 -65.9854 65.9854 -65.9854s65.9854 29.6025 65.9854 65.9854v41.2412h-9.6582c-24.835 0 -48.6562 10.6982 -65.1943 28.9512l-3.20801 -3.20801
c-14.6494 -14.6406 -33.5459 -23.4746 -53.9102 -25.3633v-41.6211zM163.587 164.872c-10.5166 -1.91406 -19.8447 -7.96777 -26.0557 -16.6211l79.8174 -31.0371l-18.0469 54.1494zM91.0352 52.085c0 -4.55273 3.7041 -8.24805 8.24902 -8.24805
c13.6426 0 24.7441 11.1025 24.7441 24.7451s-11.1016 24.7441 -24.7441 24.7441c-4.54492 0 -8.24902 -3.69531 -8.24902 -8.24805v-32.9932zM247.752 -43.082v130.767l-131.972 51.3203v-32.6787c14.542 -6.38477 24.7451 -20.877 24.7451 -37.7441
c0 -16.8682 -10.2031 -31.3604 -24.7451 -37.7441v-22.6084zM223.263 114.904l32.7373 -12.7275l32.7373 12.7354l-32.7373 32.7373zM396.22 8.23828v22.5996c-14.542 6.38379 -24.7451 20.876 -24.7451 37.7441c0 16.8672 10.2031 31.3594 24.7451 37.7441v32.6787
l-131.972 -51.3203v-130.759zM420.965 52.085v32.9932c0 4.55273 -3.7041 8.24805 -8.24902 8.24805c-13.6426 0 -24.7441 -11.1016 -24.7441 -24.7441s11.1016 -24.7451 24.7441 -24.7451c4.54492 0 8.24902 3.69531 8.24902 8.24805z" />
  </font>
</defs></svg>
