%!PS-Adobe-3.0 EPSF-3.0
%%Creator: cairo 1.15.12 (http://cairographics.org)
%%CreationDate: Thu Jan 16 14:14:18 2020
%%Pages: 1
%%DocumentData: Clean7Bit
%%LanguageLevel: 2
%%BoundingBox: 25 0 488 512
%%EndComments
%%BeginProlog
50 dict begin
/q { gsave } bind def
/Q { grestore } bind def
/cm { 6 array astore concat } bind def
/w { setlinewidth } bind def
/J { setlinecap } bind def
/j { setlinejoin } bind def
/M { setmiterlimit } bind def
/d { setdash } bind def
/m { moveto } bind def
/l { lineto } bind def
/c { curveto } bind def
/h { closepath } bind def
/re { exch dup neg 3 1 roll 5 3 roll moveto 0 rlineto
      0 exch rlineto 0 rlineto closepath } bind def
/S { stroke } bind def
/f { fill } bind def
/f* { eofill } bind def
/n { newpath } bind def
/W { clip } bind def
/W* { eoclip } bind def
/BT { } bind def
/ET { } bind def
/BDC { mark 3 1 roll /BDC pdfmark } bind def
/EMC { mark /EMC pdfmark } bind def
/cairo_store_point { /cairo_point_y exch def /cairo_point_x exch def } def
/Tj { show currentpoint cairo_store_point } bind def
/TJ {
  {
    dup
    type /stringtype eq
    { show } { -0.001 mul 0 cairo_font_matrix dtransform rmoveto } ifelse
  } forall
  currentpoint cairo_store_point
} bind def
/cairo_selectfont { cairo_font_matrix aload pop pop pop 0 0 6 array astore
    cairo_font exch selectfont cairo_point_x cairo_point_y moveto } bind def
/Tf { pop /cairo_font exch def /cairo_font_matrix where
      { pop cairo_selectfont } if } bind def
/Td { matrix translate cairo_font_matrix matrix concatmatrix dup
      /cairo_font_matrix exch def dup 4 get exch 5 get cairo_store_point
      /cairo_font where { pop cairo_selectfont } if } bind def
/Tm { 2 copy 8 2 roll 6 array astore /cairo_font_matrix exch def
      cairo_store_point /cairo_font where { pop cairo_selectfont } if } bind def
/g { setgray } bind def
/rg { setrgbcolor } bind def
/d1 { setcachedevice } bind def
/cairo_data_source {
  CairoDataIndex CairoData length lt
    { CairoData CairoDataIndex get /CairoDataIndex CairoDataIndex 1 add def }
    { () } ifelse
} def
/cairo_flush_ascii85_file { cairo_ascii85_file status { cairo_ascii85_file flushfile } if } def
/cairo_image { image cairo_flush_ascii85_file } def
/cairo_imagemask { imagemask cairo_flush_ascii85_file } def
%%EndProlog
%%BeginSetup
%%EndSetup
%%Page: 1 1
%%BeginPageSetup
%%PageBoundingBox: 25 0 488 512
%%EndPageSetup
q 25 0 463 512 rectclip
1 0 0 -1 0 512 cm q
0 g
479.473 415.5 m 479.461 415.477 479.449 415.453 479.438 415.43 c 479.414
 415.383 479.391 415.336 479.367 415.289 c 446.613 352.684 l 427.977 317.02
 411.453 291.59 368.328 289.27 c 350.719 288.312 339.445 285.109 326.711
 270.258 c 325.367 268.684 323.152 266.363 320.969 264.117 c 337.164 248.363
 349.531 228.668 354.973 209.133 c 364.262 209.133 l 379.844 209.133 392.523
 196.34 392.523 180.617 c 392.523 166.773 l 392.523 157.992 388.566 150.129
 382.359 144.895 c 382.359 117.488 l 382.359 81.23 368.316 50.711 341.758
 29.238 c 318.434 10.383 287.148 0 253.66 0 c 219.688 0 187.945 10.664 164.273
 30.031 c 137.242 52.148 122.953 83.66 122.953 121.16 c 122.953 144.922 
l 122.352 145.43 121.762 145.961 121.199 146.523 c 115.773 151.938 112.785
 159.137 112.785 166.805 c 112.785 180.648 l 112.785 196.371 125.465 209.16
 141.047 209.16 c 150.34 209.16 l 156.172 230.102 169.953 251.203 187.871
 267.445 c 186.879 268.496 185.992 269.465 185.316 270.25 c 172.547 285.145
 161.285 288.344 143.695 289.273 c 107.621 291.223 90.371 308.809 74.23 
336.547 c 72.129 340.152 73.352 344.777 76.961 346.879 c 78.156 347.574 
79.461 347.906 80.754 347.906 c 83.355 347.906 85.891 346.559 87.293 344.148
 c 101.59 319.582 114.941 305.965 144.504 304.367 c 151.234 304.012 157.469
 303.281 163.387 301.797 c 180.094 325.453 214.441 339.723 254.504 339.723
 c 256.172 339.723 257.848 339.695 259.535 339.645 c 298.977 338.48 332.277
 324.129 348.359 301.77 c 354.281 303.258 360.586 303.988 367.512 304.367
 c 401.641 306.199 414.293 323.469 433.219 359.691 c 456.52 404.223 l 441.023
 400.418 422.941 401.055 399.492 406.016 c 403.172 369.188 l 403.668 364.137
 402 359.207 398.473 355.312 c 394.676 351.121 389.262 348.719 383.625 348.719
 c 276.902 348.719 l 272.727 348.719 269.344 352.102 269.344 356.273 c 269.344
 360.449 272.73 363.832 276.902 363.832 c 383.625 363.832 l 384.961 363.832
 386.359 364.457 387.27 365.461 c 387.918 366.172 388.203 366.926 388.129
 367.691 c 377.168 477.496 l 377.164 477.504 377.164 477.516 377.164 477.523
 c 375.762 491.559 l 375.508 494.125 373.992 496.883 371.262 496.883 c 140.762
 496.883 l 138.152 496.883 136.52 494.203 136.258 491.551 c 134.859 477.535
 l 134.855 477.516 134.855 477.5 134.855 477.484 c 128.66 415.449 l 128.648
 415.117 128.617 414.789 128.562 414.469 c 123.895 367.699 l 123.816 366.926
 124.105 366.172 124.75 365.461 c 125.664 364.453 127.059 363.832 128.395
 363.832 c 238.777 363.832 l 242.949 363.832 246.332 360.445 246.332 356.273
 c 246.332 352.098 242.949 348.715 238.777 348.715 c 128.395 348.715 l 122.758
 348.715 117.348 351.121 113.551 355.312 c 110.023 359.207 108.352 364.133
 108.852 369.191 c 112.527 406.008 l 89.078 401.055 70.996 400.418 55.504
 404.223 c 73.348 370.125 l 75.281 366.43 73.855 361.859 70.156 359.926 
c 66.457 357.988 61.891 359.422 59.957 363.117 c 32.652 415.293 l 32.629
 415.34 32.609 415.387 32.582 415.434 c 32.57 415.457 32.559 415.48 32.547
 415.504 c 23.574 432.77 22.594 447.438 29.66 459.102 c 40.551 477.094 69.629
 485.84 118.543 485.84 c 120.5 485.84 l 121.219 493.047 l 122.305 504.027
 130.523 512 140.762 512 c 371.258 512 l 381.5 512 389.719 504.027 390.801
 493.051 c 391.523 485.84 l 393.508 485.84 l 442.402 485.84 471.469 477.094
 482.363 459.102 c 489.426 447.438 488.449 432.766 479.473 415.5 c h
342.91 138.289 m 294.492 138.289 l 258.422 138.289 243.992 129.492 231.273
 121.742 c 228.75 120.195 226.531 118.719 224.387 117.289 c 218.082 113.094
 212.555 109.414 206.176 109.414 c 205.48 109.414 204.773 109.461 204.055
 109.551 c 195.875 110.598 189.695 117.375 182.934 127.234 c 176.449 136.691
 172.797 138.289 167.062 138.289 c 162.398 138.289 l 162.398 123.215 l 162.398
 70.031 210.398 41.199 255.566 41.074 c 255.859 41.074 l 295.855 41.074 
342.539 64.23 342.91 129.516 c h
377.41 180.617 m 377.41 188.008 371.512 194.02 364.262 194.02 c 357.75 
194.02 l 357.918 192.055 358.027 190.098 358.027 188.164 c 358.027 153.387
 l 364.262 153.375 l 366.527 153.375 368.664 153.961 370.527 154.996 c 370.707
 155.121 370.898 155.238 371.094 155.348 c 374.875 157.703 377.41 161.938
 377.41 166.773 c h
138.066 121.16 m 138.066 48.301 197.988 15.113 253.66 15.113 c 283.699 
15.113 311.613 24.305 332.254 40.992 c 355.145 59.496 367.242 85.949 367.242
 117.488 c 367.242 138.422 l 366.258 138.316 365.258 138.262 364.246 138.262
 c 358.027 138.273 l 358.027 129.473 l 357.621 57.922 306.484 25.957 255.863
 25.957 c 255.754 25.957 255.633 25.957 255.523 25.957 c 228.406 26.035 
201.52 35.227 181.75 51.18 c 159.523 69.113 147.281 94.699 147.281 123.215
 c 147.281 138.289 l 141.066 138.289 l 141.043 138.289 141.016 138.289 140.992
 138.289 c 140.008 138.289 139.031 138.344 138.066 138.445 c h
141.047 194.047 m 133.797 194.047 127.898 188.035 127.898 180.648 c 127.898
 166.805 l 127.898 163.184 129.309 159.781 131.875 157.223 c 134.344 154.762
 137.582 153.406 141.016 153.406 c 147.285 153.406 l 147.285 188.164 l 147.285
 190.109 147.395 192.074 147.562 194.051 c 141.047 194.051 l h
163.723 200.398 m 163.695 200.23 163.664 200.059 163.625 199.895 c 162.832
 195.918 162.398 191.988 162.398 188.164 c 162.398 153.402 l 167.066 153.402
 l 180.555 153.402 188.148 146.359 195.402 135.781 c 202.109 126 205.027
 124.664 205.969 124.543 c 207.688 124.312 211.914 127.145 216.012 129.871
 c 218.164 131.309 220.609 132.934 223.391 134.637 c 237.109 142.996 254.18
 153.402 294.492 153.402 c 342.91 153.402 l 342.91 188.164 l 342.91 191.957
 342.48 195.855 341.703 199.801 c 341.648 200.023 341.605 200.246 341.574
 200.477 c 335.18 231.188 306.574 264.762 274.5 276.879 c 258.387 282.938
 246.984 282.945 230.926 276.91 c 198.754 264.82 170.082 231.184 163.723
 200.398 c h
259.086 324.539 m 223.758 325.586 193.391 314.785 178 296.035 c 184.406
 292.434 190.578 287.332 196.785 280.094 c 197.457 279.312 198.5 278.195
 199.66 276.98 c 207.82 282.836 216.562 287.66 225.605 291.059 c 235.332
 294.715 243.988 296.543 252.656 296.543 c 261.344 296.543 270.043 294.703
 279.828 291.023 c 290.289 287.074 300.34 281.227 309.559 274.066 c 311.664
 276.23 314.055 278.715 315.23 280.09 c 321.402 287.285 327.445 292.355 
333.727 295.945 c 319.574 312.602 291.449 323.586 259.086 324.539 c h
118.543 470.723 m 65.5 470.723 47.961 460.145 42.586 451.27 c 38.648 444.766
 39.484 435.691 45.047 424.281 c 61.98 415.309 82.453 414.57 114.109 421.832
 c 118.988 470.723 l h
469.434 451.273 m 464.059 460.145 446.527 470.723 393.508 470.723 c 393.031
 470.723 l 397.914 421.84 l 429.562 414.57 450.035 415.305 466.973 424.281
 c 472.539 435.691 473.371 444.77 469.434 451.273 c h
469.434 451.273 m f
223.48 430.355 m 223.48 446.602 238.078 459.82 256.023 459.82 c 273.969
 459.82 288.57 446.602 288.57 430.355 c 288.57 414.105 273.969 400.887 256.023
 400.887 c 238.078 400.887 223.48 414.105 223.48 430.355 c h
256.023 416.004 m 265.637 416.004 273.457 422.441 273.457 430.355 c 273.457
 438.27 265.637 444.707 256.023 444.707 c 246.414 444.707 238.594 438.27
 238.594 430.355 c 238.594 422.441 246.414 416.004 256.023 416.004 c h
256.023 416.004 m f
219.613 203.785 m 223.785 203.785 227.168 200.402 227.168 196.227 c 227.168
 186.891 l 227.168 182.719 223.785 179.336 219.613 179.336 c 215.438 179.336
 212.055 182.719 212.055 186.891 c 212.055 196.227 l 212.055 200.402 215.438
 203.785 219.613 203.785 c h
219.613 203.785 m f
284.953 203.785 m 289.129 203.785 292.512 200.402 292.512 196.227 c 292.512
 186.891 l 292.512 182.719 289.129 179.336 284.953 179.336 c 280.781 179.336
 277.398 182.719 277.398 186.891 c 277.398 196.227 l 277.398 200.402 280.781
 203.785 284.953 203.785 c h
284.953 203.785 m f
Q Q
showpage
%%Trailer
end
%%EOF
