%!PS-Adobe-3.0 EPSF-3.0
%%Creator: cairo 1.15.12 (http://cairographics.org)
%%CreationDate: Thu Jan 16 14:14:18 2020
%%Pages: 1
%%DocumentData: Clean7Bit
%%LanguageLevel: 2
%%BoundingBox: 54 0 319 373
%%EndComments
%%BeginProlog
50 dict begin
/q { gsave } bind def
/Q { grestore } bind def
/cm { 6 array astore concat } bind def
/w { setlinewidth } bind def
/J { setlinecap } bind def
/j { setlinejoin } bind def
/M { setmiterlimit } bind def
/d { setdash } bind def
/m { moveto } bind def
/l { lineto } bind def
/c { curveto } bind def
/h { closepath } bind def
/re { exch dup neg 3 1 roll 5 3 roll moveto 0 rlineto
      0 exch rlineto 0 rlineto closepath } bind def
/S { stroke } bind def
/f { fill } bind def
/f* { eofill } bind def
/n { newpath } bind def
/W { clip } bind def
/W* { eoclip } bind def
/BT { } bind def
/ET { } bind def
/BDC { mark 3 1 roll /BDC pdfmark } bind def
/EMC { mark /EMC pdfmark } bind def
/cairo_store_point { /cairo_point_y exch def /cairo_point_x exch def } def
/Tj { show currentpoint cairo_store_point } bind def
/TJ {
  {
    dup
    type /stringtype eq
    { show } { -0.001 mul 0 cairo_font_matrix dtransform rmoveto } ifelse
  } forall
  currentpoint cairo_store_point
} bind def
/cairo_selectfont { cairo_font_matrix aload pop pop pop 0 0 6 array astore
    cairo_font exch selectfont cairo_point_x cairo_point_y moveto } bind def
/Tf { pop /cairo_font exch def /cairo_font_matrix where
      { pop cairo_selectfont } if } bind def
/Td { matrix translate cairo_font_matrix matrix concatmatrix dup
      /cairo_font_matrix exch def dup 4 get exch 5 get cairo_store_point
      /cairo_font where { pop cairo_selectfont } if } bind def
/Tm { 2 copy 8 2 roll 6 array astore /cairo_font_matrix exch def
      cairo_store_point /cairo_font where { pop cairo_selectfont } if } bind def
/g { setgray } bind def
/rg { setrgbcolor } bind def
/d1 { setcachedevice } bind def
/cairo_data_source {
  CairoDataIndex CairoData length lt
    { CairoData CairoDataIndex get /CairoDataIndex CairoDataIndex 1 add def }
    { () } ifelse
} def
/cairo_flush_ascii85_file { cairo_ascii85_file status { cairo_ascii85_file flushfile } if } def
/cairo_image { image cairo_flush_ascii85_file } def
/cairo_imagemask { imagemask cairo_flush_ascii85_file } def
%%EndProlog
%%BeginSetup
%%EndSetup
%%Page: 1 1
%%BeginPageSetup
%%PageBoundingBox: 54 0 319 373
%%EndPageSetup
q 54 0 265 373 rectclip
1 0 0 -1 0 373 cm q
0 g
300.223 246 m 300.223 207.227 l 283.859 213.594 l 283.812 213.484 l 283.422
 212.777 l 277.152 203.016 267.012 196.223 255.594 194.152 c 216.223 186.988
 l 216.223 183.883 l 230.945 175.332 241.727 160.746 245.09 143.504 c 255.996
 141.246 264.223 131.566 264.223 120 c 264.223 60.738 l 264.223 43.992 253.254
 29.387 237.344 24.637 c 234.344 21.637 l 220.387 7.68 201.836 0 182.102
 0 c 141.367 0 108.223 33.137 108.223 73.879 c 108.223 120 l 108.223 131.566
 116.449 141.246 127.355 143.504 c 130.723 160.746 141.496 175.34 156.223
 183.883 c 156.223 186.988 l 116.855 194.148 l 105.449 196.219 95.316 202.996
 89.039 212.754 c 88.68 213.629 l 72.223 207.227 l 72.223 246 l 62.297 246
 54.223 254.074 54.223 264 c 54.223 288 l 54.223 297.926 62.297 306 72.223
 306 c 72.223 328.105 l 186.223 372.445 l 300.223 328.105 l 300.223 306 
l 310.145 306 318.223 297.926 318.223 288 c 318.223 264 l 318.223 254.074
 310.145 246 300.223 246 c h
227.465 201.234 m 253.445 205.957 l 261.098 207.348 267.871 211.766 272.387
 218.051 c 214.34 240.625 l h
168.73 189.383 m 174.27 191.074 180.137 192 186.223 192 c 192.305 192 198.176
 191.074 203.711 189.383 c 186.223 202.5 l h
177.09 210.648 m 164.844 222.887 l 156.898 199.062 l 160.723 198.371 l 
h
211.723 198.379 m 215.543 199.066 l 207.602 222.895 l 195.355 210.652 l
 h
246.223 130.332 m 246.223 109.668 l 249.793 111.75 252.223 115.578 252.223
 120 c 252.223 124.422 249.793 128.25 246.223 130.332 c h
126.223 130.332 m 122.652 128.25 120.223 124.422 120.223 120 c 120.223 
115.578 122.652 111.75 126.223 109.668 c h
126.223 90 m 126.223 96.852 l 124.086 97.41 122.082 98.25 120.223 99.336
 c 120.223 73.879 l 120.223 39.762 147.977 12 182.102 12 c 198.625 12 214.172
 18.438 225.859 30.125 c 231.148 35.426 l 232.766 35.82 l 244.223 38.684
 252.223 48.93 252.223 60.738 c 252.223 99.336 l 250.363 98.25 248.359 97.402
 246.223 96.852 c 246.223 90 l 227.195 90 l 210.938 90 195.395 82.234 185.645
 69.234 c 180.875 62.863 l 168.953 74.789 l 159.137 84.602 146.094 90 132.223
 90 c h
138.223 132 m 138.223 101.723 l 153.035 100.352 166.781 93.926 177.438 
83.273 c 179.773 80.941 l 191.801 94.219 209.129 102 227.195 102 c 234.223
 102 l 234.223 132 l 234.223 158.465 212.688 180 186.223 180 c 159.758 180
 138.223 158.465 138.223 132 c h
118.996 205.957 m 144.977 201.234 l 158.105 240.625 l 100.043 218.047 l
 104.562 211.754 111.348 207.348 118.996 205.957 c h
66.223 288 m 66.223 264 l 66.223 260.688 68.914 258 72.223 258 c 82.145
 258 90.223 266.074 90.223 276 c 90.223 285.926 82.145 294 72.223 294 c 
68.914 294 66.223 291.312 66.223 288 c h
180.223 357.227 m 84.223 319.902 l 84.223 303.457 l 94.801 298.812 102.223
 288.27 102.223 276 c 102.223 263.73 94.801 253.188 84.223 248.543 c 84.223
 224.773 l 180.223 262.105 l h
162.406 242.305 m 186.223 218.484 l 210.035 242.297 l 186.223 251.562 l
 h
288.223 319.895 m 192.223 357.223 l 192.223 262.105 l 288.223 224.773 l
 288.223 248.543 l 277.645 253.188 270.223 263.73 270.223 276 c 270.223 
288.27 277.645 298.812 288.223 303.457 c h
306.223 288 m 306.223 291.312 303.527 294 300.223 294 c 290.297 294 282.223
 285.926 282.223 276 c 282.223 266.074 290.297 258 300.223 258 c 303.527
 258 306.223 260.688 306.223 264 c h
306.223 288 m f
Q Q
showpage
%%Trailer
end
%%EOF
