%!PS-Adobe-3.0 EPSF-3.0
%%Creator: cairo 1.15.12 (http://cairographics.org)
%%CreationDate: Thu Jan 16 14:14:18 2020
%%Pages: 1
%%DocumentData: Clean7Bit
%%LanguageLevel: 2
%%BoundingBox: 6 6 378 378
%%EndComments
%%BeginProlog
50 dict begin
/q { gsave } bind def
/Q { grestore } bind def
/cm { 6 array astore concat } bind def
/w { setlinewidth } bind def
/J { setlinecap } bind def
/j { setlinejoin } bind def
/M { setmiterlimit } bind def
/d { setdash } bind def
/m { moveto } bind def
/l { lineto } bind def
/c { curveto } bind def
/h { closepath } bind def
/re { exch dup neg 3 1 roll 5 3 roll moveto 0 rlineto
      0 exch rlineto 0 rlineto closepath } bind def
/S { stroke } bind def
/f { fill } bind def
/f* { eofill } bind def
/n { newpath } bind def
/W { clip } bind def
/W* { eoclip } bind def
/BT { } bind def
/ET { } bind def
/BDC { mark 3 1 roll /BDC pdfmark } bind def
/EMC { mark /EMC pdfmark } bind def
/cairo_store_point { /cairo_point_y exch def /cairo_point_x exch def } def
/Tj { show currentpoint cairo_store_point } bind def
/TJ {
  {
    dup
    type /stringtype eq
    { show } { -0.001 mul 0 cairo_font_matrix dtransform rmoveto } ifelse
  } forall
  currentpoint cairo_store_point
} bind def
/cairo_selectfont { cairo_font_matrix aload pop pop pop 0 0 6 array astore
    cairo_font exch selectfont cairo_point_x cairo_point_y moveto } bind def
/Tf { pop /cairo_font exch def /cairo_font_matrix where
      { pop cairo_selectfont } if } bind def
/Td { matrix translate cairo_font_matrix matrix concatmatrix dup
      /cairo_font_matrix exch def dup 4 get exch 5 get cairo_store_point
      /cairo_font where { pop cairo_selectfont } if } bind def
/Tm { 2 copy 8 2 roll 6 array astore /cairo_font_matrix exch def
      cairo_store_point /cairo_font where { pop cairo_selectfont } if } bind def
/g { setgray } bind def
/rg { setrgbcolor } bind def
/d1 { setcachedevice } bind def
/cairo_data_source {
  CairoDataIndex CairoData length lt
    { CairoData CairoDataIndex get /CairoDataIndex CairoDataIndex 1 add def }
    { () } ifelse
} def
/cairo_flush_ascii85_file { cairo_ascii85_file status { cairo_ascii85_file flushfile } if } def
/cairo_image { image cairo_flush_ascii85_file } def
/cairo_imagemask { imagemask cairo_flush_ascii85_file } def
%%EndProlog
%%BeginSetup
%%EndSetup
%%Page: 1 1
%%BeginPageSetup
%%PageBoundingBox: 6 6 378 378
%%EndPageSetup
q 6 6 372 372 rectclip
1 0 0 -1 0 384 cm q
0 g
186 144 m 186 147.312 183.312 150 180 150 c 176.688 150 174 147.312 174
 144 c 174 140.688 176.688 138 180 138 c 183.312 138 186 140.688 186 144
 c h
186 144 m f
258 144 m 258 147.312 255.312 150 252 150 c 248.688 150 246 147.312 246
 144 c 246 140.688 248.688 138 252 138 c 255.312 138 258 140.688 258 144
 c h
258 144 m f
240 192 m 228 192 l 228 198.617 222.617 204 216 204 c 209.383 204 204 198.617
 204 192 c 192 192 l 192 205.234 202.766 216 216 216 c 229.234 216 240 205.234
 240 192 c h
240 192 m f
281.773 102.496 m 293.734 101.508 l 293.371 97.133 292.633 92.762 291.547
 88.512 c 279.918 91.492 l 280.848 95.094 281.465 98.789 281.773 102.496
 c h
281.773 102.496 m f
276.02 80.504 m 286.926 75.496 l 274.234 47.855 246.395 30 216 30 c 216
 42 l 241.723 42 265.285 57.113 276.02 80.504 c h
276.02 80.504 m f
108 252 m 98.074 252 90 260.074 90 270 c 90 279.926 98.074 288 108 288 
c 117.926 288 126 279.926 126 270 c 126 260.074 117.926 252 108 252 c h
108 276 m 104.688 276 102 273.305 102 270 c 102 266.695 104.688 264 108
 264 c 111.312 264 114 266.695 114 270 c 114 273.305 111.312 276 108 276
 c h
108 276 m f
60 252 m 50.074 252 42 260.074 42 270 c 42 279.926 50.074 288 60 288 c 
69.926 288 78 279.926 78 270 c 78 260.074 69.926 252 60 252 c h
60 276 m 56.688 276 54 273.305 54 270 c 54 266.695 56.688 264 60 264 c 
63.312 264 66 266.695 66 270 c 66 273.305 63.312 276 60 276 c h
60 276 m f
174 270 m 174 260.074 165.926 252 156 252 c 146.074 252 138 260.074 138
 270 c 138 279.926 146.074 288 156 288 c 165.926 288 174 279.926 174 270
 c h
150 270 m 150 266.695 152.688 264 156 264 c 159.312 264 162 266.695 162
 270 c 162 273.305 159.312 276 156 276 c 152.688 276 150 273.305 150 270
 c h
150 270 m f
318.738 283.734 m 310.027 280.172 l 315.18 271.727 318 261.984 318 252 
c 318 108 l 318 51.758 272.242 6 216 6 c 159.758 6 114 51.758 114 108 c 
114 216 l 60 216 l 30.223 216 6 240.227 6 270 c 6 299.773 30.223 324 60 
324 c 67.074 324 l 58.535 338.555 54 354.926 54 372 c 54 378 l 378 378 l
 378 372 l 378 333.102 354.738 298.457 318.738 283.734 c h
126 108 m 126 58.375 166.375 18 216 18 c 265.625 18 306 58.375 306 108 
c 306 252 l 306 260.43 303.316 268.578 298.625 275.504 c 257.191 258.547
 l 250.387 255.77 246 249.227 246 241.883 c 246 237.574 l 275.527 217.172
 294 183.344 294 146.105 c 294 114 l 288 114 l 256.996 114 226.906 107.617
 198.574 95.023 c 186.449 89.629 l 178.996 91.758 l 154.859 98.656 138 121.004
 138 146.105 c 138 171.523 147.008 196.289 162.91 216 c 126 216 l h
269.875 324.793 m 267.148 328.344 263.375 330 258 330 c 240.594 330 229.895
 325.68 224.516 322.648 c 261.527 273.293 l 271.914 277.543 l 274.621 289.234
 278.141 314.016 269.875 324.793 c h
178.984 216 m 160.578 197.453 150 172.152 150 146.105 c 150 126.336 163.277
 108.73 182.285 103.301 c 185.555 102.371 l 193.699 105.996 l 221.746 118.457
 251.426 125.152 282 125.93 c 282 146.113 l 282 188.242 255.562 225.582 
216.008 239.656 c 214.094 238.961 212.074 238.121 210 237.211 c 210 216 
l h
250.184 268.43 m 244.5 276 l 209.645 276 l 209.867 274.027 210 272.027 
210 270 c 210 250.164 l 211.379 250.699 212.766 251.25 214.105 251.695 c
 216 252.324 l 217.895 251.695 l 223.578 249.797 229.027 247.48 234.211 
244.777 c 235.188 254.898 241.152 263.734 250.184 268.43 c h
206.852 288 m 235.5 288 l 216 313.996 l 202.945 296.594 l 204.492 293.867
 205.789 290.992 206.852 288 c h
195.512 306.684 m 207.48 322.645 l 202.078 325.688 191.387 330 174 330 
c 169.766 330 164.875 329.105 161.398 323.723 c 174.836 322.387 186.797 
316.066 195.512 306.684 c h
18 270 m 18 246.84 36.848 228 60 228 c 198 228 l 198 270 l 198 293.16 179.152
 312 156 312 c 60 312 l 36.848 312 18 293.16 18 270 c h
81.312 324 m 148.219 324 l 152.652 335.652 161.645 342 174 342 c 190.859
 342 202.559 338.363 210 334.828 c 210 366 l 126 366 l 126 336 l 114 336
 l 114 366 l 66.211 366 l 67.285 350.863 72.48 336.512 81.312 324 c h
318 366 m 318 336 l 306 336 l 306 366 l 222 366 l 222 334.828 l 229.441
 338.363 241.141 342 258 342 c 267.035 342 274.441 338.566 279.406 332.082
 c 289.352 319.098 287.586 296.707 285.246 282.996 c 314.191 294.84 l 343.801
 306.949 363.551 334.469 365.789 366 c h
318 366 m f
Q Q
showpage
%%Trailer
end
%%EOF
