%!PS-Adobe-3.0 EPSF-3.0
%%Creator: cairo 1.15.12 (http://cairographics.org)
%%CreationDate: Thu Jan 16 14:14:18 2020
%%Pages: 1
%%DocumentData: Clean7Bit
%%LanguageLevel: 2
%%BoundingBox: 11 19 373 373
%%EndComments
%%BeginProlog
50 dict begin
/q { gsave } bind def
/Q { grestore } bind def
/cm { 6 array astore concat } bind def
/w { setlinewidth } bind def
/J { setlinecap } bind def
/j { setlinejoin } bind def
/M { setmiterlimit } bind def
/d { setdash } bind def
/m { moveto } bind def
/l { lineto } bind def
/c { curveto } bind def
/h { closepath } bind def
/re { exch dup neg 3 1 roll 5 3 roll moveto 0 rlineto
      0 exch rlineto 0 rlineto closepath } bind def
/S { stroke } bind def
/f { fill } bind def
/f* { eofill } bind def
/n { newpath } bind def
/W { clip } bind def
/W* { eoclip } bind def
/BT { } bind def
/ET { } bind def
/BDC { mark 3 1 roll /BDC pdfmark } bind def
/EMC { mark /EMC pdfmark } bind def
/cairo_store_point { /cairo_point_y exch def /cairo_point_x exch def } def
/Tj { show currentpoint cairo_store_point } bind def
/TJ {
  {
    dup
    type /stringtype eq
    { show } { -0.001 mul 0 cairo_font_matrix dtransform rmoveto } ifelse
  } forall
  currentpoint cairo_store_point
} bind def
/cairo_selectfont { cairo_font_matrix aload pop pop pop 0 0 6 array astore
    cairo_font exch selectfont cairo_point_x cairo_point_y moveto } bind def
/Tf { pop /cairo_font exch def /cairo_font_matrix where
      { pop cairo_selectfont } if } bind def
/Td { matrix translate cairo_font_matrix matrix concatmatrix dup
      /cairo_font_matrix exch def dup 4 get exch 5 get cairo_store_point
      /cairo_font where { pop cairo_selectfont } if } bind def
/Tm { 2 copy 8 2 roll 6 array astore /cairo_font_matrix exch def
      cairo_store_point /cairo_font where { pop cairo_selectfont } if } bind def
/g { setgray } bind def
/rg { setrgbcolor } bind def
/d1 { setcachedevice } bind def
/cairo_data_source {
  CairoDataIndex CairoData length lt
    { CairoData CairoDataIndex get /CairoDataIndex CairoDataIndex 1 add def }
    { () } ifelse
} def
/cairo_flush_ascii85_file { cairo_ascii85_file status { cairo_ascii85_file flushfile } if } def
/cairo_image { image cairo_flush_ascii85_file } def
/cairo_imagemask { imagemask cairo_flush_ascii85_file } def
%%EndProlog
%%BeginSetup
%%EndSetup
%%Page: 1 1
%%BeginPageSetup
%%PageBoundingBox: 11 19 373 373
%%EndPageSetup
q 11 19 362 354 rectclip
1 0 0 -1 0 384 cm q
0 g
371.641 286.586 m 351.75 231.949 l 351.25 230.398 350.137 229.117 348.676
 228.402 c 347.211 227.688 345.52 227.602 343.988 228.156 c 342.457 228.715
 341.219 229.871 340.559 231.359 c 339.898 232.848 339.871 234.543 340.48
 236.051 c 358.309 285.047 l 330 295.352 l 330 138 l 330 134.688 327.312
 132 324 132 c 320.688 132 318 134.688 318 138 c 318 324 l 138 324 l 134.688
 324 132 326.688 132 330 c 132 333.312 134.688 336 138 336 c 159.762 336
 l 168.66 360.457 l 169.523 362.828 171.777 364.406 174.301 364.402 c 175
 364.406 175.695 364.281 176.352 364.039 c 253.398 336 l 324 336 l 327.312
 336 330 333.312 330 330 c 330 308.117 l 368.051 294.27 l 369.551 293.727
 370.77 292.613 371.445 291.172 c 372.121 289.73 372.195 288.082 371.652
 286.586 c h
177.887 350.711 m 172.535 336 l 218.316 336 l h
177.887 350.711 m f
114 210.266 m 114 227.25 l 114 230.562 116.688 233.25 120 233.25 c 123.312
 233.25 126 230.562 126 227.25 c 126 60 l 318 60 l 318 114 l 318 117.312
 320.688 120 324 120 c 327.312 120 330 117.312 330 114 c 330 54 l 330 50.688
 327.312 48 324 48 c 284.801 48 l 273.133 15.949 l 272.59 14.449 271.477
 13.23 270.035 12.555 c 268.594 11.879 266.941 11.805 265.445 12.348 c 167.539
 48 l 120 48 l 116.688 48 114 50.688 114 54 c 114 175.199 l 83.496 91.379
 l 100.41 85.199 l 101.914 84.66 103.141 83.547 103.82 82.102 c 104.496 
80.652 104.57 78.996 104.023 77.496 c 103.477 75.996 102.355 74.773 100.906
 74.105 c 99.453 73.434 97.797 73.371 96.301 73.926 c 73.754 82.133 l 72.254
 82.676 71.031 83.789 70.355 85.234 c 69.68 86.676 69.609 88.328 70.152 
89.824 c h
263.91 25.691 m 272.035 48 l 202.613 48 l h
263.91 25.691 m f
294 90 m 186 90 l 182.688 90 180 92.688 180 96 c 180 99.312 182.688 102
 186 102 c 294 102 l 297.312 102 300 99.312 300 96 c 300 92.688 297.312 
90 294 90 c h
294 90 m f
300 120 m 300 116.688 297.312 114 294 114 c 234 114 l 230.688 114 228 116.688
 228 120 c 228 180 l 228 183.312 230.688 186 234 186 c 294 186 l 297.312
 186 300 183.312 300 180 c h
288 174 m 240 174 l 240 126 l 288 126 l h
288 174 m f
204 126 m 168 126 l 164.688 126 162 128.688 162 132 c 162 135.312 164.688
 138 168 138 c 204 138 l 207.312 138 210 135.312 210 132 c 210 128.688 207.312
 126 204 126 c h
204 126 m f
204 150 m 150 150 l 146.688 150 144 152.688 144 156 c 144 159.312 146.688
 162 150 162 c 204 162 l 207.312 162 210 159.312 210 156 c 210 152.688 207.312
 150 204 150 c h
204 150 m f
204 174 m 150 174 l 146.688 174 144 176.688 144 180 c 144 183.312 146.688
 186 150 186 c 204 186 l 207.312 186 210 183.312 210 180 c 210 176.688 207.312
 174 204 174 c h
204 174 m f
204 198 m 150 198 l 146.688 198 144 200.688 144 204 c 144 207.312 146.688
 210 150 210 c 204 210 l 207.312 210 210 207.312 210 204 c 210 200.688 207.312
 198 204 198 c h
204 198 m f
294 198 m 240 198 l 236.688 198 234 200.688 234 204 c 234 207.312 236.688
 210 240 210 c 294 210 l 297.312 210 300 207.312 300 204 c 300 200.688 297.312
 198 294 198 c h
294 198 m f
294 222 m 246 222 l 242.688 222 240 224.688 240 228 c 240 231.312 242.688
 234 246 234 c 294 234 l 297.312 234 300 231.312 300 228 c 300 224.688 297.312
 222 294 222 c h
294 222 m f
294 246 m 228 246 l 224.688 246 222 248.688 222 252 c 222 255.312 224.688
 258 228 258 c 294 258 l 297.312 258 300 255.312 300 252 c 300 248.688 297.312
 246 294 246 c h
294 246 m f
300 276 m 300 272.688 297.312 270 294 270 c 210 270 l 206.688 270 204 272.688
 204 276 c 204 279.312 206.688 282 210 282 c 294 282 l 297.312 282 300 279.312
 300 276 c h
300 276 m f
186 294 m 182.688 294 180 296.688 180 300 c 180 303.312 182.688 306 186
 306 c 246 306 l 249.312 306 252 303.312 252 300 c 252 296.688 249.312 294
 246 294 c h
186 294 m f
183.348 282.602 m 215.914 243 l 217.5 241.07 217.727 238.359 216.48 236.195
 c 226.871 230.195 l 229.742 228.539 230.727 224.867 229.07 221.996 c 227.414
 219.125 223.742 218.141 220.871 219.797 c 210.48 225.797 l 209.227 223.633
 206.762 222.469 204.293 222.883 c 153.727 231.281 l 153.016 231.398 152.332
 231.641 151.711 232.004 c 27 304.016 l 12.648 312.297 7.734 330.648 16.016
 344.996 c 24.301 359.348 42.648 364.266 57 355.98 c 84.512 340.098 l 85.898
 339.309 86.918 337.996 87.336 336.453 c 87.754 334.91 87.539 333.266 86.742
 331.883 c 85.941 330.496 84.625 329.488 83.078 329.082 c 81.531 328.672
 79.891 328.898 78.512 329.707 c 71.789 333.582 l 65.789 323.195 l 138.535
 281.195 l 139.914 280.398 140.918 279.09 141.332 277.551 c 141.742 276.016
 141.527 274.375 140.734 272.996 c 139.938 271.617 138.625 270.613 137.09
 270.199 c 135.551 269.785 133.914 270.004 132.535 270.797 c 59.789 312.797
 l 53.789 302.406 l 152.516 245.406 l 170.516 276.605 l 99.293 317.73 l 
96.449 319.398 95.484 323.051 97.133 325.906 c 98.781 328.762 102.426 329.754
 105.293 328.121 c 181.711 283.98 l 182.332 283.621 182.887 283.152 183.348
 282.602 c h
203.082 237 m 203.992 238.586 l 179.578 268.277 l 164.238 241.711 l 202.164
 235.398 l h
52.391 324 m 61.391 339.602 l 51 345.602 l 46.863 347.988 41.945 348.637
 37.332 347.398 c 32.719 346.16 28.785 343.141 26.398 339 c 24.012 334.863
 23.363 329.945 24.602 325.332 c 25.84 320.719 28.859 316.785 33 314.398
 c 43.398 308.398 l h
52.391 324 m f
Q Q
showpage
%%Trailer
end
%%EOF
